%!PS-Adobe-2.0 EPSF-1.2
%%Title: nyx.FH10
%%Creator: FreeHand 10.0
%%CreationDate: Mon Jun 19 10:26:30 2006 
%%BoundingBox: 0 0 125 31
%%FHPathName:C:\Dokumente und Einstellungen\carsten\Desktop\nyx.FH10
%ALDOriginalFile:C:\Dokumente und Einstellungen\carsten\Desktop\nyx.FH10
%ALDBoundingBox: -349 -634 246 207
%%FHPageNum:1
%%DocumentSuppliedResources: procset Altsys_header 4 0
%%ColorUsage: Color
%%DocumentProcessColors: Cyan Magenta Yellow Black
%%CMYKProcessColor: 0.7 0.2 0 0.1 (70c 20m 0y 10k)
%%+ 0.7 0.2 0 0.3 (70c 20m 0y 30k)
%%EndComments
%%BeginResource: procset Altsys_header 4 0
userdict begin /AltsysDict 300 dict def end
AltsysDict begin
/bdf{bind def}bind def
/xdf{exch def}bdf
/defed{where{pop true}{false}ifelse}bdf
/ndf{1 index where{pop pop pop}{dup xcheck{bind}if def}ifelse}bdf
/d{setdash}bdf
/h{closepath}bdf
/H{}bdf
/J{setlinecap}bdf
/j{setlinejoin}bdf
/M{setmiterlimit}bdf
/n{newpath}bdf
/N{newpath}bdf
/q{gsave}bdf
/Q{grestore}bdf
/w{setlinewidth}bdf
/Xic{matrix invertmatrix concat}bdf
/Xq{matrix currentmatrix mark}bdf
/XQ{cleartomark setmatrix}bdf
/sepdef{
dup where not
{
AltsysSepDict
}
if	
3 1 roll exch put
}bdf
/st{settransfer}bdf
/colorimage defed /_rci xdf
/cntr 0 def
/readbinarystring{
/cntr 0 def
2 copy readstring
{
{
dup
(\034) search
{
length exch pop exch
dup length 0 ne
{
dup dup 0 get  32 sub 0 exch put
/cntr cntr 1 add def
}
{
pop 1 string dup
0 6 index read pop 32 sub put
}ifelse
3 copy
putinterval pop
1 add
1 index length 1 sub
1 index sub
dup 0 le {pop pop exit}if
getinterval
}
{
pop exit
} ifelse
} loop
}if
cntr 0 gt
{
pop 2 copy
dup length cntr sub cntr getinterval
readbinarystring
} if
pop exch pop
} bdf
/_NXLevel2 defed {			
_NXLevel2 not {			
/colorimage where {
userdict eq {
/_rci false def		
} if
} if
} if
} if
/md defed{	
md type /dicttype eq {		
/colorimage where {		
md eq {				
/_rci false def	
}if
}if
/settransfer where {
md eq {
/st systemdict /settransfer get def
}if
}if
}if
}if
/setstrokeadjust defed
{
true setstrokeadjust
/C{curveto}bdf
/L{lineto}bdf
/m{moveto}bdf
}
{
/dr{transform .25 sub round .25 add
exch .25 sub round .25 add exch itransform}bdf
/C{dr curveto}bdf
/L{dr lineto}bdf
/m{dr moveto}bdf
/setstrokeadjust{pop}bdf	
}ifelse
/privrectpath {	
4 -2 roll m
dtransform round exch round exch idtransform	
2 copy 0 lt exch 0 lt xor
{dup 0 exch rlineto exch 0 rlineto neg 0 exch rlineto}
{exch dup 0 rlineto exch 0 exch rlineto neg 0 rlineto}
ifelse
closepath
}bdf
/rectclip{newpath privrectpath clip newpath}def
/rectfill{gsave newpath privrectpath fill grestore}def
/rectstroke{gsave newpath privrectpath stroke grestore}def
/_fonthacksave false def
/currentpacking defed
{
/_bfh {/_fonthacksave currentpacking def false setpacking} bdf
/_efh {_fonthacksave setpacking} bdf
}
{
/_bfh {} bdf
/_efh {} bdf
}ifelse
/packedarray{array astore readonly}ndf
/`	
{
false setoverprint		
/-save0- save def
5 index concat
pop
storerect left bottom width height rectclip
pop
/MMdict_count countdictstack def
/MMop_count count 1 sub def
userdict begin
/showpage {} def
0 setgray 0 setlinecap 1 setlinewidth
0 setlinejoin 10 setmiterlimit [] 0 setdash newpath
} bdf
/currentpacking defed{true setpacking}if
/min{2 copy gt{exch}if pop}bdf
/max{2 copy lt{exch}if pop}bdf
/xformfont { currentfont exch makefont setfont } bdf
/fhnumcolors 1
statusdict begin
/processcolors defed
{
pop processcolors
}
{
/deviceinfo defed {
deviceinfo /Colors known {
pop deviceinfo /Colors get
} if
} if
} ifelse
end 
def
%	pix = x^2 + y^2
/printerRes
gsave
matrix defaultmatrix setmatrix
72 72 dtransform
abs exch abs
max
grestore
def
/graycalcs
[
{Angle Frequency}			
{GrayAngle GrayFrequency}	
{0 Width Height matrix defaultmatrix idtransform
dup mul exch dup mul add sqrt 72 exch div}	
{0 GrayWidth GrayHeight matrix defaultmatrix idtransform
dup mul exch dup mul add sqrt 72 exch div}	
] def
/calcgraysteps {
forcemaxsteps
{
maxsteps
}
{
/currenthalftone defed
{currenthalftone /dicttype eq}{false}ifelse
{
currenthalftone begin
HalftoneType 4 le
{graycalcs HalftoneType 1 sub get exec}
{
HalftoneType 5 eq
{
Default begin
{graycalcs HalftoneType 1 sub get exec}
end
}
{0 60}	
ifelse
}
ifelse
end
}
{
currentscreen pop exch			
}
ifelse
printerRes 300 max exch div exch	
2 copy								
sin mul round dup mul				
3 1 roll							
cos mul round dup mul				
add 1 add							
dup maxsteps gt {pop maxsteps} if	
dup minsteps lt {pop minsteps} if	
}
ifelse
} bdf
/nextrelease defed {						
/languagelevel defed not {				
/framebuffer defed {				
0 40 string framebuffer 9 1 roll 8 {pop} repeat
dup 516 eq exch 520 eq or
{
/fhnumcolors 3 def
/currentscreen {60 0 {pop pop 1}}bdf
/calcgraysteps {maxsteps} bdf
}if
}if
}if
}if
fhnumcolors 1 ne {
/calcgraysteps {maxsteps} bdf
} if
/currentpagedevice defed {
currentpagedevice /PreRenderingEnhance known
{
currentpagedevice /PreRenderingEnhance get
{
/calcgraysteps
{
forcemaxsteps
{maxsteps}
{256 maxsteps min}
ifelse
} def
} if
} if
} if
/gradfrequency 144 def
printerRes 1000 lt {
/gradfrequency 72 def
} if
/adjnumsteps {
dup dtransform abs exch abs max  
printerRes div 					 
gradfrequency mul 				 
round 						 
5 max						 
min							 
}bdf
/goodsep {
spots exch get 4 get dup sepname eq exch (_vc_Registration) eq or
}bdf
/BeginGradation defed
{/bb{BeginGradation}bdf}
{/bb{}bdf}
ifelse
/EndGradation defed
{/eb{EndGradation}bdf}
{/eb{}bdf}
ifelse
/bottom -0 def			
/delta -0 def			
/frac -0 def			
/height -0 def			
/left -0 def			
/numsteps1 -0 def		
/radius -0 def			
/right -0 def			
/top -0 def				
/width -0 def			
/xt -0 def				
/yt -0 def				
/df currentflat def		
/tempstr 1 string def	
/clipflatness currentflat def	
/inverted?				
0 currenttransfer exec .5 ge def
/tc1 [0 0 0 1] def		
/tc2 [0 0 0 1] def		
/storerect{/top xdf /right xdf /bottom xdf /left xdf
/width right left sub def /height top bottom sub def}bdf
/concatprocs{
systemdict /packedarray known
{dup type /packedarraytype eq 2 index type /packedarraytype eq or}{false}ifelse
{	
/proc2 exch cvlit def	/proc1 exch cvlit def
proc1 aload pop proc2 aload pop
proc1 length proc2 length add packedarray cvx
}
{	
/proc2 exch cvlit def	/proc1 exch cvlit def
/newproc proc1 length proc2 length add array def
newproc 0 proc1 putinterval newproc proc1 length proc2 putinterval
newproc cvx
}ifelse
}bdf
/i{dup 0 eq
{pop df dup}	
{dup} ifelse
/clipflatness xdf setflat
}bdf
version cvr 38.0 le
{/setrgbcolor{
currenttransfer exec 3 1 roll
currenttransfer exec 3 1 roll
currenttransfer exec 3 1 roll
setrgbcolor}bdf}if
/vms {/vmsv save def} bdf
/vmr {vmsv restore} bdf
/vmrs{vmsv restore /vmsv save def}bdf
/eomode{
{/filler /eofill load def /clipper /eoclip load def}
{/filler /fill load def /clipper /clip load def}
ifelse
}bdf
/normtaper{}bdf
/logtaper{9 mul 1 add log}bdf
/CD{
/NF exch def	
{				
exch dup	
/FID ne 1 index/UniqueID ne and
{exch NF 3 1 roll put}
{pop pop}
ifelse
}forall
NF
}bdf
/MN{
1 index length 		
/Len exch def
dup length Len add 	
string dup 			
Len 				
4 -1 roll 			
putinterval 		
dup 				
0 					
4 -1 roll			
putinterval			
}bdf
/RC{4 -1 roll /ourvec xdf 256 string cvs(|______)anchorsearch
{1 index MN cvn/NewN exch def cvn
findfont dup maxlength dict CD dup/FontName NewN put dup
/Encoding ourvec put NewN exch definefont pop}{pop}ifelse}bdf
/RF{						
dup 					
FontDirectory exch 		
known					
{pop 3 -1 roll pop}		
{RC}
ifelse
}bdf
/FF{dup 256 string cvs(|______)exch MN cvn dup FontDirectory exch known
{exch pop findfont 3 -1 roll pop}
{pop dup findfont dup maxlength dict CD dup dup
/Encoding exch /Encoding get 256 array copy 7 -1 roll
{3 -1 roll dup 4 -2 roll put}forall put definefont}
ifelse}bdf
/RCJ{4 -1 roll 			
/ourvec xdf  		
256 string cvs 		
(|______) anchorsearch
{pop				
cvn				
dup FDFJ		
exch	 		
1 index 		
eq				
{
_bfh findfont _efh		
dup 					
maxlength dict			
CD						
dup						
/FontName 		
3 index			
put						
dup						
/Encoding ourvec put	
1 index					
exch 					
definefont				
pop						
}
{exch pop}		
ifelse
}
{pop}				
ifelse
}bdf
/RFJ{						
dup 					
FontDirectory exch 		
known					
{pop 3 -1 roll pop}		
{RCJ}
ifelse
}bdf
/hasfont
{
/resourcestatus where	
{
pop			
/Font resourcestatus
{			
pop pop true
}
{			
false
}
ifelse
}
{
dup FontDirectory exch known
{pop true}
{
256 string
cvs
(fonts/) exch MN
status
{pop pop pop pop true}
{false}
ifelse
}
ifelse
}
ifelse
}bdf
/FDFJ
{
dup			
hasfont		
not			
{			
pop
/Ryumin-Light-83pv-RKSJ-H
hasfont			
{
/Ryumin-Light-83pv-RKSJ-H
}
{
/Courier
}
ifelse			
}
if
}bdf
/FFJ{
_bfh
dup					
256 string cvs		
(|______)exch MN	
cvn					
dup					
FontDirectory
exch known			
{					
exch				
pop					
findfont			
3 -1 roll			
pop					
}
{					
pop					
FDFJ				
dup findfont		
dup maxlength dict	
CD 					
dup dup				
/Encoding exch		
/Encoding get		
256 array copy		
7 -1 roll 			
{					
3 -1 roll		
dup				
4 -2 roll		
put				
}forall
put 				
definefont			
}
ifelse
_efh
}bdf
/GS {
dup
hasfont
{
findfont
exch makesetfont
exch
pop
ts
}
{
pop pop pop
ts
} ifelse
} bdf
/RCK{4 -1 roll 			
/ourvec xdf  		
256 string cvs 		
(|______) anchorsearch
{pop				
cvn				
dup FDFK		
exch	 		
1 index 		
eq				
{
_bfh findfont _efh		
dup 					
maxlength dict			
CD						
dup						
/FontName 		
3 index			
put						
dup						
/Encoding ourvec put	
1 index					
exch 					
definefont				
pop						
}
{exch pop}		
ifelse
}
{pop}				
ifelse
}bdf
/RFK{						
dup 					
FontDirectory exch 		
known					
{pop 3 -1 roll pop}		
{RCK}
ifelse
}bdf
/hasfont
{
/resourcestatus where	
{
pop			
/Font resourcestatus
{			
pop pop true
}
{			
false
}
ifelse
}
{
dup FontDirectory exch known
{pop true}
{
256 string
cvs
(fonts/) exch MN
status
{pop pop pop pop true}
{false}
ifelse
}
ifelse
}
ifelse
}bdf
/FDFK
{
dup			
hasfont		
not			
{			
pop
/JCsm
hasfont			
{
/JCsm
}
{
/Courier
}
ifelse			
}
if
}bdf
/FFK{
_bfh
dup					
256 string cvs		
(|______)exch MN	
cvn					
dup					
FontDirectory
exch known			
{					
exch				
pop					
findfont			
3 -1 roll			
pop					
}
{					
pop					
FDFK				
dup findfont		
dup maxlength dict	
CD 					
dup dup				
/Encoding exch		
/Encoding get		
256 array copy		
7 -1 roll 			
{					
3 -1 roll		
dup				
4 -2 roll		
put				
}forall
put 				
definefont			
}
ifelse
_efh
}bdf
/RCTC{4 -1 roll 			
/ourvec xdf  		
256 string cvs 		
(|______) anchorsearch
{pop				
cvn				
dup FDFTC		
exch	 		
1 index 		
eq				
{
_bfh findfont _efh		
dup 					
maxlength dict			
CD						
dup						
/FontName 		
3 index			
put						
dup						
/Encoding ourvec put	
1 index					
exch 					
definefont				
pop						
}
{exch pop}		
ifelse
}
{pop}				
ifelse
}bdf
/RFTC{						
dup 					
FontDirectory exch 		
known					
{pop 3 -1 roll pop}		
{RCTC}
ifelse
}bdf
/FDFTC
{
dup			
hasfont		
not			
{			
pop
/DFMing-Lt-HK-BF
hasfont			
{
/DFMing-Lt-HK-BF
}
{
/Courier
}
ifelse			
}
if
}bdf
/FFTC{
_bfh
dup					
256 string cvs		
(|______)exch MN	
cvn					
dup					
FontDirectory
exch known			
{					
exch				
pop					
findfont			
3 -1 roll			
pop					
}
{					
pop					
FDFTC				
dup findfont		
dup maxlength dict	
CD 					
dup dup				
/Encoding exch		
/Encoding get		
256 array copy		
7 -1 roll 			
{					
3 -1 roll		
dup				
4 -2 roll		
put				
}forall
put 				
definefont			
}
ifelse
_efh
}bdf
/RCSC{4 -1 roll 			
/ourvec xdf  		
256 string cvs 		
(|______) anchorsearch
{pop				
cvn				
dup FDFSC		
exch	 		
1 index 		
eq				
{
_bfh findfont _efh		
dup 					
maxlength dict			
CD						
dup						
/FontName 		
3 index			
put						
dup						
/Encoding ourvec put	
1 index					
exch 					
definefont				
pop						
}
{exch pop}		
ifelse
}
{pop}				
ifelse
}bdf
/RFSC{						
dup 					
FontDirectory exch 		
known					
{pop 3 -1 roll pop}		
{RCSC}
ifelse
}bdf
/FDFSC
{
dup			
hasfont		
not			
{			
pop
/zh-gbscript-1.11
hasfont			
{
/zh-gbscript-1.11
}
{
/Courier
}
ifelse			
}
if
}bdf
/FFSC{
_bfh
dup					
256 string cvs		
(|______)exch MN	
cvn					
dup					
FontDirectory
exch known			
{					
exch				
pop					
findfont			
3 -1 roll			
pop					
}
{					
pop					
FDFSC				
dup findfont		
dup maxlength dict	
CD 					
dup dup				
/Encoding exch		
/Encoding get		
256 array copy		
7 -1 roll 			
{					
3 -1 roll		
dup				
4 -2 roll		
put				
}forall
put 				
definefont			
}
ifelse
_efh
}bdf
/fps{
currentflat 		
exch 				
dup 0 le{pop 1}if	
{
dup setflat 3 index stopped
{1.3 mul dup 3 index gt{pop setflat pop pop stop}if}	
{exit}			
ifelse
}loop
pop setflat pop pop
}bdf
/fp{100 currentflat fps}bdf
/clipper{clip}bdf		
/W{/clipper load 100 clipflatness dup setflat fps}bdf
/AVec 256 array def
AVec 0 /Helvetica findfont
/Encoding get 0 256 getinterval putinterval
/ANSIPatch[
16#0/grave 16#1/acute 16#2/circumflex 16#3/tilde 16#4/macron 16#5/breve
16#6/dotaccent 16#7/dieresis 16#8/ring 16#9/cedilla 16#A/hungarumlaut
16#B/ogonek 16#C/caron 16#D/dotlessi 16#27/quotesingle 16#60/grave
16#7C/bar 16#82/quotesinglbase 16#83/florin 16#84/quotedblbase 16#85
/ellipsis 16#86/dagger 16#87/daggerdbl 16#89/perthousand 16#8A/Scaron
16#8B/guilsinglleft 16#8C/OE 16#91/quoteleft 16#92/quoteright 16#93
/quotedblleft 16#94/quotedblright 16#95/bullet 16#96/endash 16#97/emdash
16#99/trademark 16#9A/scaron 16#9B/guilsinglright 16#9C/oe
16#9F/Ydieresis 16#A0/space 16#A4/currency 16#A6/brokenbar
16#A7/section 16#A8/dieresis 16#A9/copyright 16#AA/ordfeminine 16#AB/guillemotleft
16#AC/logicalnot 16#AD/hyphen 16#AE/registered 16#AF/macron 16#B0/degree
16#B1/plusminus 16#B2/twosuperior 16#B3/threesuperior 16#B4/acute 16#B5/mu
16#B6/paragraph 16#B7/periodcentered 16#B8/cedilla 16#B9/onesuperior
16#BA/ordmasculine 16#BB/guillemotright 16#BC/onequarter 16#BD/onehalf
16#BE/threequarters 16#BF/questiondown 16#C0/Agrave 16#C1/Aacute 16#C2/Acircumflex
16#C3/Atilde 16#C4/Adieresis 16#C5/Aring 16#C6/AE 16#C7/Ccedilla 16#C8/Egrave
16#C9/Eacute 16#CA/Ecircumflex 16#CB/Edieresis 16#CC/Igrave 16#CD/Iacute
16#CE/Icircumflex 16#CF/Idieresis 16#D0/Eth 16#D1/Ntilde 16#D2/Ograve
16#D3/Oacute 16#D4/Ocircumflex 16#D5/Otilde 16#D6/Odieresis 16#D7/multiply
16#D8/Oslash 16#D9/Ugrave 16#DA/Uacute 16#DB/Ucircumflex 16#DC/Udieresis
16#DD/Yacute 16#DE/Thorn 16#DF/germandbls 16#E0/agrave 16#E1/aacute
16#E2/acircumflex 16#E3/atilde 16#E4/adieresis 16#E5/aring 16#E6/ae
16#E7/ccedilla 16#E8/egrave 16#E9/eacute 16#EA/ecircumflex 16#EB/edieresis
16#EC/igrave 16#ED/iacute 16#EE/icircumflex 16#EF/idieresis 16#F0/eth
16#F1/ntilde 16#F2/ograve 16#F3/oacute 16#F4/ocircumflex 16#F5/otilde
16#F6/odieresis 16#F7/divide 16#F8/oslash 16#F9/ugrave 16#FA/uacute
16#FB/ucircumflex 16#FC/udieresis 16#FD/yacute 16#FE/thorn 16#FF/ydieresis
] def
127 1 159 { AVec exch/bullet put } for
ANSIPatch aload pop ANSIPatch length 2 idiv{AVec 3 1 roll put}repeat
/DoPatch { dup /CharStrings known
{ setfont
0 1 255 { dup
currentfont
/Encoding get
exch get
currentfont /CharStrings get
exch known
{pop} {currentfont /Encoding get exch /bullet put} ifelse
} for
} {pop} ifelse
} def
/findheaderfont {
AVec 256 array copy
/FHT /|______Helvetica dup RF findfont def
FHT DoPatch
FHT
}	def
end		%. AltsysDict
%%EndResource
%%EndProlog
%%BeginSetup
AltsysDict begin
_bfh	
_efh	
end %. AltsysDict
%%EndSetup
AltsysDict begin	
/onlyk4{false}ndf
/ccmyk{dup 5 -1 roll sub 0 max exch}ndf
/cmyk2gray{
4 -1 roll 0.3 mul 4 -1 roll 0.59 mul 4 -1 roll 0.11 mul
add add add 1 min neg 1 add
}bdf
/setcmykcolor{1 exch sub ccmyk ccmyk ccmyk pop setrgbcolor}ndf
/maxcolor {    
max max max		
} ndf
/maxspot {
pop
} ndf
/setcmykcoloroverprint{4{dup -1 eq{pop 0}if 4 1 roll}repeat setcmykcolor}ndf
/findcmykcustomcolor{5 packedarray}ndf
/setcustomcolor{exch aload pop pop 4{4 index mul 4 1 roll}repeat setcmykcolor pop}ndf
/setseparationgray{setgray}ndf
/setoverprint{pop}ndf		
/currentoverprint false ndf
/cmykbufs2gray{
0 1 2 index length 1 sub
{
4 index 1 index get	0.3 mul		
4 index 2 index get	0.59 mul	
4 index 3 index get	0.11 mul	
4 index 4 index get				
add add add cvi 255 min
255 exch sub
2 index 3 1 roll put
}for
4 1 roll pop pop pop
}bdf
/colorimage{
pop pop
[
5 -1 roll/exec cvx
6 -1 roll/exec cvx
7 -1 roll/exec cvx
8 -1 roll/exec cvx
/cmykbufs2gray cvx
]cvx
image
}
%. version 47.1 on Linotronic of Postscript defines colorimage incorrectly (rgb model only)
version cvr 47.1 le
statusdict /product get (Lino) anchorsearch{pop pop true}{pop false}ifelse
and{userdict begin bdf end}{ndf}ifelse
fhnumcolors 1 ne {/yt save def} if
/customcolorimage{
aload pop
(_vc_Registration) eq
{
pop pop pop pop separationimage
}
{
/ik xdf /iy xdf /im xdf /ic xdf
ic im iy ik cmyk2gray /xt xdf
currenttransfer
{dup 1.0 exch sub xt mul add}concatprocs
st
image
}
ifelse
}ndf
fhnumcolors 1 ne {yt restore} if
fhnumcolors 3 ne {/yt save def} if
/customcolorimage{
aload pop
(_vc_Registration) eq
{
pop pop pop pop separationimage
}
{
/ik xdf /iy xdf /im xdf /ic xdf
1.0 dup ic ik add min sub	
1.0 dup im ik add min sub	
1.0 dup iy ik add min sub	
/ic xdf /iy xdf /im xdf
currentcolortransfer
4 1 roll	
{dup 1.0 exch sub ic mul add}concatprocs 4 1 roll	
{dup 1.0 exch sub iy mul add}concatprocs 4 1 roll	
{dup 1.0 exch sub im mul add}concatprocs 4 1 roll	
setcolortransfer
{/dummy xdf dummy}concatprocs{dummy}{dummy}true 3 colorimage
}
ifelse
}ndf
fhnumcolors 3 ne {yt restore} if
fhnumcolors 4 ne {/yt save def} if
/customcolorimage{
aload pop
(_vc_Registration) eq
{
pop pop pop pop separationimage
}
{
/ik xdf /iy xdf /im xdf /ic xdf
currentcolortransfer
{1.0 exch sub ik mul ik sub 1 add}concatprocs 4 1 roll
{1.0 exch sub iy mul iy sub 1 add}concatprocs 4 1 roll
{1.0 exch sub im mul im sub 1 add}concatprocs 4 1 roll
{1.0 exch sub ic mul ic sub 1 add}concatprocs 4 1 roll
setcolortransfer
{/dummy xdf dummy}concatprocs{dummy}{dummy}{dummy}
true 4 colorimage
}
ifelse
}ndf
fhnumcolors 4 ne {yt restore} if
/separationimage{image}ndf
/spotascmyk false ndf
/newcmykcustomcolor{6 packedarray}ndf
/inkoverprint false ndf
/setinkoverprint{pop}ndf		
/setspotcolor {		
spots exch get
dup 4 get (_vc_Registration) eq
{pop 1 exch sub setseparationgray}
{0 5 getinterval exch setcustomcolor}
ifelse
}ndf
/currentcolortransfer{currenttransfer dup dup dup}ndf
/setcolortransfer{st pop pop pop}ndf
/fas{}ndf
/sas{}ndf
/fhsetspreadsize{pop}ndf
/filler{fill}bdf			
/F{gsave {filler}fp grestore}bdf
/f{closepath F}bdf
/S{gsave {stroke}fp grestore}bdf
/s{closepath S}bdf
userdict /islevel2
systemdict /languagelevel known dup
{
pop systemdict /languagelevel get 2 ge
} if
put
islevel2 not
{
/currentcmykcolor
{
0 0 0 1 currentgray sub
} ndf
} if
/tc
{
gsave
setcmykcolor currentcmykcolor
grestore
} bind def
/testCMYKColorThrough
{
tc add add add 0 ne
} bind def
/fhiscomposite where not {
userdict /fhiscomposite
islevel2
{
gsave 1 1 1 1 setcmykcolor currentcmykcolor grestore
add add add 4 eq
}
{
1 0 0 0 testCMYKColorThrough
0 1 0 0 testCMYKColorThrough
0 0 1 0 testCMYKColorThrough
0 0 0 1 testCMYKColorThrough
and and and
} ifelse
put
}
{ pop }
ifelse
/bc4 [0 0 0 0] def	
/_lfp4 {
1 pop	
/yt xdf							
/xt xdf							
/ang xdf						
storerect
/taperfcn xdf
/k2 xdf /y2 xdf /m2 xdf /c2 xdf
/k1 xdf /y1 xdf /m1 xdf /c1 xdf
c1 c2 sub abs
m1 m2 sub abs
y1 y2 sub abs
k1 k2 sub abs
maxcolor						
calcgraysteps mul abs round		
height abs adjnumsteps			
dup 1 lt {pop 1} if				
1 sub /numsteps1 xdf
currentflat mark				
currentflat clipflatness		
/delta top bottom sub numsteps1 1 add div def	
/right right left sub def		
/botsv top delta sub def		
{
{
W
xt yt translate
ang rotate
xt neg yt neg translate
dup setflat				
/bottom botsv def
0 1 numsteps1			
{
numsteps1 dup 0 eq {pop pop 0.5} {div} ifelse 
taperfcn /frac xdf
bc4 0 c2 c1 sub frac mul c1 add put
bc4 1 m2 m1 sub frac mul m1 add put
bc4 2 y2 y1 sub frac mul y1 add put
bc4 3 k2 k1 sub frac mul k1 add put
bc4 vc
1 index setflat		
{
mark {newpath left bottom right delta rectfill}stopped
{cleartomark exch 1.3 mul dup setflat exch 2 copy gt{stop}if}
{cleartomark exit}ifelse
}loop
/bottom bottom delta sub def
}for
}
gsave stopped grestore
{exch pop 2 index exch 1.3 mul dup 100 gt{cleartomark setflat stop}if}
{exit}ifelse
}loop
cleartomark setflat
}bdf
/bcs [0 0] def	
/_lfs4 {
/yt xdf							
/xt xdf							
/ang xdf						
storerect
/taperfcn xdf
/tint2 xdf						
/tint1 xdf						
bcs exch 1 exch put				
tint1 tint2 sub abs				
bcs 1 get maxspot				
calcgraysteps mul abs round		
height abs adjnumsteps			
dup 2 lt {pop 2} if				
1 sub /numsteps1 xdf
currentflat mark				
currentflat clipflatness		
/delta top bottom sub numsteps1 1 add div def	
/right right left sub def		
/botsv top delta sub def		
{
{
W
xt yt translate
ang rotate
xt neg yt neg translate
dup setflat				
/bottom botsv def
0 1 numsteps1			
{
numsteps1 div taperfcn /frac xdf
bcs 0
1.0 tint2 tint1 sub frac mul tint1 add sub
put bcs vc
1 index setflat		
{
mark {newpath left bottom right delta rectfill}stopped
{cleartomark exch 1.3 mul dup setflat exch 2 copy gt{stop}if}
{cleartomark exit}ifelse
}loop
/bottom bottom delta sub def
}for
}
gsave stopped grestore
{exch pop 2 index exch 1.3 mul dup 100 gt{cleartomark setflat stop}if}
{exit}ifelse
}loop
cleartomark setflat
}bdf
/_rfs6 {
/tint2 xdf						
/tint1 xdf						
bcs exch 1 exch put				
/inrad xdf						
/radius xdf						
/yt xdf							
/xt xdf							
tint1 tint2 sub abs				
bcs 1 get maxspot				
calcgraysteps mul abs round		
radius inrad sub abs			
adjnumsteps						
dup 1 lt {pop 1} if				
1 sub /numsteps1 xdf
radius inrad sub numsteps1 dup 0 eq {pop} {div} ifelse	
2 div /halfstep xdf				
currentflat mark				
currentflat clipflatness		
{
{
dup setflat				
W 						
0 1 numsteps1			
{
dup /radindex xdf
numsteps1 dup 0 eq {pop pop 0.5} {div} ifelse 
/frac xdf
bcs 0
tint2 tint1 sub frac mul tint1 add
put bcs vc
1 index setflat		
{
newpath mark	
xt yt radius inrad sub 1 frac sub mul halfstep add inrad add 0 360
{	arc
radindex numsteps1 ne
inrad 0 gt or		
{
xt yt			
numsteps1 0 eq
{ inrad }	
{			
radindex 1 add numsteps1 div 1 exch sub
radius inrad sub mul halfstep add inrad add
}ifelse
dup xt add yt moveto
360 0 arcn
} if
fill
}stopped
{cleartomark exch 1.3 mul dup setflat exch 2 copy gt{stop}if}
{cleartomark exit}ifelse
}loop
}for
}
gsave stopped grestore
{exch pop 2 index exch 1.3 mul dup 100 gt{cleartomark setflat stop}if}
{exit}ifelse
}loop
cleartomark setflat
}bdf
/_rfp6 {
1 pop	
/k2 xdf /y2 xdf /m2 xdf /c2 xdf
/k1 xdf /y1 xdf /m1 xdf /c1 xdf
/inrad xdf						
/radius xdf						
/yt xdf							
/xt xdf							
c1 c2 sub abs
m1 m2 sub abs
y1 y2 sub abs
k1 k2 sub abs
maxcolor					
calcgraysteps mul abs round	
radius inrad sub abs		
adjnumsteps					
dup 1 lt {pop 1} if			
1 sub /numsteps1 xdf
radius inrad sub numsteps1 dup 0 eq {pop} {div} ifelse	
2 div /halfstep xdf			
currentflat mark			
currentflat clipflatness	
{
{
dup setflat			
W 					
0 1 numsteps1		
{
dup /radindex xdf
numsteps1 dup 0 eq {pop pop 0.5} {div} ifelse 
/frac xdf
bc4 0 c2 c1 sub frac mul c1 add put
bc4 1 m2 m1 sub frac mul m1 add put
bc4 2 y2 y1 sub frac mul y1 add put
bc4 3 k2 k1 sub frac mul k1 add put
bc4 vc
1 index setflat		
{
newpath mark	
xt yt radius inrad sub 1 frac sub mul halfstep add inrad add 0 360
{	arc
radindex numsteps1 ne
inrad 0 gt or		
{
xt yt			
numsteps1 0 eq
{ inrad }	
{			
radindex 1 add numsteps1 div 1 exch sub
radius inrad sub mul halfstep add inrad add
}ifelse
dup xt add yt moveto
360 0 arcn
} if
fill
}stopped
{cleartomark exch 1.3 mul dup setflat exch 2 copy gt{stop}if}
{cleartomark exit}ifelse
}loop
}for
}
gsave stopped grestore
{exch pop 2 index exch 1.3 mul dup 100 gt{cleartomark setflat stop}if}
{exit}ifelse
}loop
cleartomark setflat
}bdf
/lfp4{_lfp4}ndf
/lfs4{_lfs4}ndf
/rfs6{_rfs6}ndf
/rfp6{_rfp6}ndf
/cvc [0 0 0 1] def	
/vc{
AltsysDict /cvc 2 index put	
aload length dup 4 eq
{pop dup -1 eq{pop setrgbcolor}{setcmykcolor}ifelse}
{6 eq {sethexcolor} {setspotcolor}	ifelse }
ifelse
}bdf	
0 setseparationgray
/imgr {1692 1584 2287.28 2425.89 } def			
/bleed 0 def			
/clpr {1692 1584 2287.28 2425.89 } def			
/xs 1 def				
/ys 1 def				
/botx 0 def			
/overlap 0 def			
/wdist 18 def			
0 2 mul fhsetspreadsize	
0 0 ne {/df 0 def /clipflatness 0 def} if	
/maxsteps 256 def		
/forcemaxsteps false def	
/minsteps 0 def		
userdict begin /AGDOrigMtx matrix currentmatrix def end
vms
-2041 -2218 translate
/currentpacking defed{false setpacking}if 	
/spots[
1 0 0 0 (Process Cyan) false newcmykcustomcolor
0 1 0 0 (Process Magenta) false newcmykcustomcolor
0 0 1 0 (Process Yellow) false newcmykcustomcolor
0 0 0 1 (Process Black) false newcmykcustomcolor
]def
n
[] 0 d
3.863708 M
1 w
0 j
0 J
false setoverprint
0 i
false eomode
[0 0 0 1]vc
vms
2056.7567 2235.1079 m
2045.4595 2231.2199 L
2056.7567 2227.3551 L
2056.7567 2224.4275 L
2041.7327 2229.8496 L
2041.7327 2232.6134 L
2056.7567 2238.0355 L
2056.7567 2235.1079 L
[0.7 0.2 0 0.1]vc
f	
n
2073.332 2231.6954 m
2073.332 2223.7075 L
2069.108 2223.7075 L
2069.108 2225.0076 L
2069.108 2229.8215 L
2069.108 2230.9538 2069.0826 2231.7346 2069.0318 2232.1641 C
2068.9811 2232.5936 2068.8933 2232.9099 2068.7686 2233.1129 C
2068.6046 2233.3861 2068.3821 2233.5989 2068.1013 2233.7511 C
2067.8204 2233.9034 2067.5005 2233.9795 2067.1415 2233.9795 C
2066.2675 2233.9795 2065.5807 2233.6418 2065.0812 2232.9664 C
2064.5817 2232.2911 2064.332 2231.356 2064.332 2230.1613 C
2064.332 2223.7075 L
2060.132 2223.7075 L
2060.132 2236.8355 L
2064.332 2236.8355 L
2064.332 2234.9155 L
2064.9647 2235.679 2065.6366 2236.2419 2066.3476 2236.6041 C
2067.0586 2236.9664 2067.8437 2237.1475 2068.703 2237.1475 C
2070.2187 2237.1475 2071.3691 2236.6824 2072.1543 2235.7523 C
2072.9394 2234.8222 2073.332 2233.4699 2073.332 2231.6954 C
[0 0 0 1]vc
true setoverprint
f	
false setoverprint
n
2074.2766 2236.8355 m
2078.4748 2236.8355 L
2082.0046 2227.9274 L
2085.0065 2236.8355 L
2089.2046 2236.8355 L
2083.6813 2222.467 L
2083.1263 2221.0038 2082.4794 2219.9807 2081.7406 2219.3978 C
2081.0019 2218.815 2080.0266 2218.5235 2078.8149 2218.5235 C
2076.3875 2218.5235 L
2076.3875 2221.2835 L
2077.7008 2221.2835 L
2078.4123 2221.2835 2078.9303 2221.3967 2079.2548 2221.6231 C
2079.5793 2221.8495 2079.8314 2222.2554 2080.0111 2222.8409 C
2080.1281 2223.2043 L
2074.2766 2236.8355 L
true setoverprint
f	
false setoverprint
n
2094.4958 2230.4238 m
2089.7633 2236.8355 L
2094.2029 2236.8355 L
2096.8857 2232.9441 L
2099.6033 2236.8355 L
2104.0433 2236.8355 L
2099.3108 2230.4474 L
2104.2833 2223.7075 L
2099.84 2223.7075 L
2096.8857 2227.8569 L
2093.9667 2223.7075 L
2089.5233 2223.7075 L
2094.4958 2230.4238 L
true setoverprint
f	
false setoverprint
n
2116.918 2236.4275 m
2116.918 2233.2355 L
2116.0201 2233.6115 2115.1534 2233.8935 2114.318 2234.0815 C
2113.4826 2234.2695 2112.694 2234.3635 2111.9523 2234.3635 C
2111.1558 2234.3635 2110.5643 2234.2638 2110.1778 2234.0645 C
2109.7913 2233.8651 2109.5981 2233.5581 2109.598 2233.1436 C
2109.598 2232.8074 2109.7447 2232.5493 2110.0381 2232.3694 C
2110.3315 2232.1896 2110.8575 2232.0566 2111.6163 2231.9706 C
2112.3554 2231.8653 L
2114.5044 2231.592 2115.9501 2231.1429 2116.6925 2230.5181 C
2117.4349 2229.8932 2117.806 2228.913 2117.806 2227.5775 C
2117.806 2226.1793 2117.2902 2225.1287 2116.2584 2224.4258 C
2115.2267 2223.7229 2113.687 2223.3715 2111.6395 2223.3715 C
2110.7718 2223.3715 2109.8749 2223.4395 2108.9487 2223.5755 C
2108.0226 2223.7115 2107.071 2223.9155 2106.094 2224.1875 C
2106.094 2227.3795 L
2106.9305 2226.9715 2107.7885 2226.6655 2108.668 2226.4615 C
2109.5475 2226.2575 2110.4408 2226.1555 2111.3478 2226.1555 C
2112.1685 2226.1555 2112.7861 2226.269 2113.2005 2226.496 C
2113.6149 2226.723 2113.8221 2227.0595 2113.8221 2227.5055 C
2113.8221 2227.8813 2113.6793 2228.1611 2113.3938 2228.345 C
2113.1083 2228.5288 2112.5392 2228.6716 2111.6864 2228.7734 C
2110.9473 2228.8668 L
2109.082 2229.101 2107.7749 2229.5344 2107.0257 2230.1669 C
2106.2766 2230.7994 2105.902 2231.7598 2105.902 2233.048 C
2105.902 2234.438 2106.3781 2235.4688 2107.3302 2236.1403 C
2108.2824 2236.8118 2109.7418 2237.1475 2111.7085 2237.1475 C
2112.4813 2237.1475 2113.293 2237.0894 2114.1436 2236.9733 C
2114.9942 2236.8572 2115.9191 2236.6753 2116.918 2236.4275 C
[0.7 0.2 0 0.3]vc
f	
n
true eomode
2127.1227 2234.0995 m
2126.2322 2234.0995 2125.5506 2233.7717 2125.0778 2233.1161 C
2124.6051 2232.4604 2124.3687 2231.5083 2124.3687 2230.2595 C
2124.3687 2229.0108 2124.6051 2228.0586 2125.0778 2227.403 C
2125.5506 2226.7473 2126.2322 2226.4195 2127.1227 2226.4195 C
2128.0212 2226.4195 2128.7068 2226.7473 2129.1796 2227.403 C
2129.6523 2228.0586 2129.8887 2229.0108 2129.8887 2230.2595 C
2129.8887 2231.5083 2129.6523 2232.4604 2129.1796 2233.1161 C
2128.7068 2233.7717 2128.0212 2234.0995 2127.1227 2234.0995 C
h
2129.8887 2225.6035 m
2129.3107 2224.8323 2128.6742 2224.2675 2127.9792 2223.9091 C
2127.2842 2223.5507 2126.4797 2223.3715 2125.5657 2223.3715 C
2123.9492 2223.3715 2122.6216 2224.0138 2121.5828 2225.2984 C
2120.5441 2226.5831 2120.0247 2228.2366 2120.0247 2230.2591 C
2120.0247 2232.2819 2120.5441 2233.9316 2121.5828 2235.2084 C
2122.6216 2236.4851 2123.9492 2237.1235 2125.5657 2237.1235 C
2126.4797 2237.1235 2127.2842 2236.9443 2127.9792 2236.586 C
2128.6742 2236.2276 2129.3107 2235.6628 2129.8887 2234.8915 C
2129.8887 2236.8355 L
2134.1127 2236.8355 L
2134.1127 2218.7155 L
2129.8887 2218.7155 L
2129.8887 2225.6035 L
f	
n
false eomode
2138.1422 2241.9475 m
2142.3422 2241.9475 L
2142.3422 2223.7075 L
2138.1422 2223.7075 L
2138.1422 2241.9475 L
f	
n
2146.9063 2235.1079 m
2146.9063 2238.0355 L
2161.9303 2232.6134 L
2161.9303 2229.8496 L
2146.9063 2224.4275 L
2146.9063 2227.3551 L
2158.2152 2231.2199 L
2146.9063 2235.1079 L
[0.7 0.2 0 0.1]vc
f	
n
true eomode
2165.1544 2243.8195 m
2165.1544 2242.4206 2164.6591 2241.2259 2163.6685 2240.2353 C
2162.678 2239.2448 2161.4833 2238.7495 2160.0844 2238.7495 C
2158.6855 2238.7495 2157.4908 2239.2448 2156.5002 2240.2353 C
2155.5097 2241.2259 2155.0144 2242.4206 2155.0144 2243.8195 C
2155.0144 2245.2183 2155.5097 2246.413 2156.5002 2247.4036 C
2157.4908 2248.3942 2158.6855 2248.8895 2160.0844 2248.8895 C
2161.4833 2248.8895 2162.678 2248.3942 2163.6685 2247.4036 C
2164.6591 2246.413 2165.1544 2245.2183 2165.1544 2243.8195 C
h
2164.4704 2243.8195 m
2164.4704 2245.0314 2164.042 2246.0715 2163.1851 2246.9395 C
2162.3282 2247.8074 2161.2946 2248.2415 2160.0844 2248.2415 C
2158.8741 2248.2415 2157.8406 2247.8074 2156.9837 2246.9395 C
2156.1268 2246.0715 2155.6984 2245.0314 2155.6984 2243.8195 C
2155.6984 2242.6075 2156.1268 2241.5674 2156.9837 2240.6994 C
2157.8406 2239.8315 2158.8741 2239.3975 2160.0844 2239.3975 C
2161.2946 2239.3975 2162.3282 2239.8315 2163.1851 2240.6994 C
2164.042 2241.5674 2164.4704 2242.6075 2164.4704 2243.8195 C
h
2162.1304 2241.4883 m
2161.7949 2241.3354 2161.472 2241.2207 2161.1619 2241.1442 C
2160.8517 2241.0677 2160.5444 2241.0294 2160.24 2241.0294 C
2159.3543 2241.0294 2158.6539 2241.2701 2158.1389 2241.7513 C
2157.6239 2242.2326 2157.3664 2242.931 2157.3664 2243.8466 C
2157.3664 2244.727 2157.6288 2245.4196 2158.1536 2245.9243 C
2158.6784 2246.4291 2159.3739 2246.6815 2160.24 2246.6815 C
2160.5873 2246.6815 2160.9287 2246.6344 2161.2642 2246.5403 C
2161.5998 2246.4461 2161.8885 2246.3441 2162.1304 2246.2343 C
2162.1304 2245.1694 L
2162.0366 2245.1694 L
2161.8258 2245.3266 2161.5554 2245.4739 2161.2254 2245.6113 C
2160.8955 2245.7487 2160.5568 2245.8174 2160.2093 2245.8174 C
2159.6549 2245.8174 2159.2225 2245.6503 2158.912 2245.316 C
2158.6016 2244.9817 2158.4464 2244.4919 2158.4464 2243.8466 C
2158.4464 2243.2249 2158.5957 2242.7439 2158.8944 2242.4037 C
2159.1931 2242.0635 2159.6314 2241.8934 2160.2093 2241.8934 C
2160.5334 2241.8934 2160.8487 2241.9504 2161.1552 2242.0643 C
2161.4617 2242.1781 2161.7555 2242.3372 2162.0366 2242.5415 C
2162.1304 2242.5415 L
2162.1304 2241.4883 L
[0.7 0.2 0 0.3]vc
f	
n
vmr
vmr
end
%%Trailer
